Data Analysis Replication Assignment
…
## Note: Using an external vector in selections is ambiguous.
##  Use `all_of(ID)` instead of `ID` to silence this message.
##  See <https://tidyselect.r-lib.org/reference/faq-external-vector.html>.
## This message is displayed once per session.

entry_exit

## # A tibble: 44 x 3
##       id entry  exit
##    <int> <dbl> <dbl>
##  1     1  1225    NA
##  2     2  1332    NA
##  3     3  1195    NA
##  4     4   979    NA
##  5     5   999    NA
##  6     6  1104    NA
##  7     7   879    NA
##  8     8   635    NA
##  9     9   832    NA
## 10    10   972  1280
## #  with 34 more rows
…
